%YAML 1.1
%TAG !u! tag:unity3d.com,2011:
--- !u!1045 &1
EditorBuildSettings:
  m_ObjectHideFlags: 0
  serializedVersion: 2
  m_Scenes:
  - enabled: 1
    path: Assets/Scenes/MainMenu.unity
    guid: d11e69b518b260344bb26ae443ee3ec6
  - enabled: 1
    path: Assets/Scenes/Settings.unity
    guid: 48a167adf4ca86f4b947d93baf0ed09f
  - enabled: 1
    path: Assets/Scenes/Credit.unity
    guid: ab534e32b49114145b089914f82749e5
  - enabled: 1
    path: Assets/Scenes/CharacterSelect.unity
    guid: 60ee958b7a9f5c04ea7159af3871b2e7
  - enabled: 1
    path: Assets/Scenes/Arena2.unity
    guid: 9e5e42c57ded3c84786b15a906888a3f
  m_configObjects: {}
